<svg id="Icon_-_Overflow" data-name="Icon - Overflow" xmlns="http://www.w3.org/2000/svg" width="4" height="20" viewBox="0 0 4 20">
  <g id="Group_27" data-name="Group 27" transform="translate(14 -2) rotate(90)">
    <circle id="Ellipse_21" data-name="Ellipse 21" cx="2" cy="2" r="2" transform="translate(2 10)" fill="#fff"/>
    <circle id="Ellipse_22" data-name="Ellipse 22" cx="2" cy="2" r="2" transform="translate(10 10)" fill="#fff"/>
    <circle id="Ellipse_23" data-name="Ellipse 23" cx="2" cy="2" r="2" transform="translate(18 10)" fill="#fff"/>
  </g>
</svg>
